[
  "noseCone",
  "airbrake1",
  "airScoop",
  "airlinerCtrlSrf",
  "airlinerMainWing",
  "airlinerTailFin",
  "AdvancedCanard",
  "CanardController",
  "sweptWing",
  "tailfin",
  "basicFin",
  "CircularIntake",
  "shockConeIntake",
  "avionicsNoseCone",
  "pointyNoseConeA",
  "pointyNoseConeB",
  "noseConeAdapter",
  "rocketNoseCone.v2",
  "rocketNoseConeSize3",
  "standardNoseCone",
  "airplaneTail",
  "airplaneTailB",
  "fairingSize1",
  "fairingSize2",
  "fairingSize3",
  "HeatShield0",
  "HeatShield1",
  "HeatShield2",
  "HeatShield3",
  "InflatableHeatShield",
  "IntakeRadialLong",
  "miniIntake",
  "rocketNoseCone",
  "ramAirIntake",
  "wingShuttleDelta",
  "wingShuttleElevon1",
  "wingShuttleElevon2",
  "wingShuttleRudder",
  "wingShuttleStrake",
  "R8winglet",
  "winglet",
  "winglet3",
  "wingConnector",
  "wingConnector2",
  "wingConnector3",
  "wingConnector4",
  "wingConnector5",
  "deltaWing",
  "delta.small",
  "StandardCtrlSrf",
  "elevon2",
  "elevon3",
  "smallCtrlSrf",
  "elevon5",
  "wingStrake",
  "structuralWing",
  "structuralWing2",
  "structuralWing3",
  "structuralWing4",
  "sweptWing1",
  "sweptWing2",
  "asasmodule1-2",
  "cupola",
  "seatExternalCmd",
  "crewCabin",
  "advSasModule",
  "sasModule",
  "mk1-3pod",
  "Mark1Cockpit",
  "MK1CrewCabin",
  "Mark2Cockpit",
  "landerCabinSmall",
  "mk1pod",
  "mk1pod.v2",
  "mk2Cockpit.Inline",
  "mk2Cockpit.Standard",
  "mk2DroneCore",
  "mk2LanderCabin",
  "mk2LanderCabin.v2",
  "mk3Cockpit.Shuttle",
  "probeCoreCube",
  "probeCoreHex",
  "probeCoreHex.v2",
  "probeCoreOcto",
  "probeCoreOcto2",
  "probeCoreOcto2.v2",
  "probeCoreOcto.v2",
  "roverBody",
  "roverBody.v2",
  "probeStackLarge",
  "probeStackSmall",
  "probeCoreSphere",
  "probeCoreSphere.v2",
  "fuelLine",
  "strutConnector",
  "Decoupler.0",
  "Decoupler.1",
  "Decoupler.2",
  "Decoupler.3",
  "Separator.0",
  "Separator.1",
  "Separator.2",
  "Separator.3",
  "solarPanels2",
  "solarPanels4",
  "solarPanels1",
  "solarPanels3",
  "largeSolarPanel",
  "solarPanels5",
  "rtg",
  "batteryPack",
  "batteryBank",
  "batteryBankMini",
  "ksp.r.largeBatteryPack",
  "batteryBankLarge",
  "ionEngine",
  "turboJet",
  "JetEngine",
  "turboFanSize2",
  "turboFanEngine",
  "smallRadialEngine",
  "smallRadialEngine.v2",
  "liquidEngineMini",
  "liquidEngineMini.v2",
  "toroidalAerospike",
  "microEngine",
  "radialEngineMini",
  "radialEngineMini.v2",
  "microEngine.v2",
  "liquidEngine3",
  "liquidEngine3.v2",
  "nuclearEngine",
  "liquidEngine",
  "liquidEngine2",
  "liquidEngine1-2",
  "radialLiquidEngine1-2",
  "liquidEngine2-2",
  "liquidEngine2-2.v2",
  "engineLargeSkipper",
  "SSME",
  "MassiveBooster",
  "miniJetEngine",
  "omsEngine",
  "RAPIER",
  "solidBooster.v2",
  "solidBooster.sm.v2",
  "Size2LFB",
  "Size3AdvancedEngine",
  "Size3EngineCluster",
  "solidBooster1-1",
  "solidBooster",
  "solidBooster.sm",
  "Thoroughbred",
  "Clydesdale",
  "sepMotor1",
  "Shrimp",
  "Mite",
  "adapterMk3-Mk2",
  "adapterEngines",
  "adapterMk3-Size2",
  "adapterMk3-Size2Slant",
  "adapterSize2-Mk2",
  "adapterSize2-Size1",
  "adapterSize2-Size1Slant",
  "adapterSize3-Mk3",
  "externalTankCapsule",
  "externalTankRound",
  "externalTankToroid",
  "miniFuelTank",
  "miniFuselage",
  "mk2.1m.Bicoupler",
  "mk2.1m.AdapterLong",
  "mk2SpacePlaneAdapter",
  "mk2FuselageLongLFO",
  "mk2Fuselage",
  "mk2FuselageShortLFO",
  "mk2FuselageShortLiquid",
  "mk2FuselageShortMono",
  "mk3CrewCabin",
  "mk3FuselageLFO.100",
  "mk3FuselageLFO.25",
  "mk3FuselageLFO.50",
  "mk3FuselageLF.100",
  "mk3FuselageLF.25",
  "mk3FuselageLF.50",
  "mk3FuselageMONO",
  "RCSTank1-2",
  "rcsTankMini",
  "RCSFuelTank",
  "radialRCSTank",
  "rcsTankRadialLong",
  "Rockomax16.BW",
  "Rockomax32.BW",
  "Rockomax64.BW",
  "Rockomax8BW",
  "fuelTankSmallFlat",
  "fuelTankSmall",
  "fuelTank",
  "fuelTank.long",
  "Size3LargeTank",
  "Size3MediumTank",
  "Size3SmallTank",
  "xenonTank",
  "xenonTankLarge",
  "xenonTankRadial",
  "InfraredTelescope",
  "HECS2.ProbeCore",
  "HighGainAntenna",
  "LgRadialSolarPanel",
  "PotatoRoid",
  "FuelCell",
  "FuelCellArray",
  "ISRU",
  "LargeTank",
  "MiniDrill",
  "MiniISRU",
  "OrbitalScanner",
  "RadialDrill",
  "RadialOreTank",
  "SmallTank",
  "SurfaceScanner",
  "SurveyScanner",
  "sensorAtmosphere",
  "GooExperiment",
  "Large.Crewed.Lab",
  "science.module",
  "ScienceBox",
  "sensorAccelerometer",
  "sensorBarometer",
  "sensorGravimeter",
  "sensorThermometer",
  "adapterSmallMiniShort",
  "adapterSmallMiniTall",
  "radialEngineBody",
  "nacelleBody",
  "MK1Fuselage",
  "MK1IntakeFuselage",
  "Mk1FuselageStructural",
  "Size3to2Adapter",
  "Size3To2Adapter.v2",
  "adapterLargeSmallBi",
  "adapterLargeSmallQuad",
  "adapterLargeSmallTri",
  "stationHub",
  "structuralIBeam2",
  "structuralIBeam3",
  "structuralIBeam1",
  "structuralMiniNode",
  "structuralPanel1",
  "structuralPanel2",
  "smallHardpoint",
  "structuralPylon",
  "strutCube",
  "strutOcto",
  "trussAdapter",
  "trussPiece1x",
  "trussPiece3x",
  "foldingRadLarge",
  "foldingRadMed",
  "foldingRadSmall",
  "radPanelEdge",
  "radPanelLg",
  "radPanelSm",
  "commDish",
  "mediumDishAntenna",
  "longAntenna",
  "radialDecoupler1-2",
  "radialDecoupler",
  "radialDecoupler2",
  "SurfAntenna",
  "HighGainAntenna5",
  "dockingPort2",
  "dockingPortLateral",
  "dockingPort3",
  "dockingPort1",
  "dockingPortLarge",
  "GrapplingDevice",
  "ladder1",
  "telescopicLadder",
  "telescopicLadderBay",
  "landingLeg1",
  "landingLeg1-2",
  "miniLandingLeg",
  "launchClamp1",
  "LaunchEscapeSystem",
  "linearRcs",
  "vernierEngine",
  "mk2CargoBayL",
  "mk2CargoBayS",
  "mk2CrewCabin",
  "mk2DockingPort",
  "mk3CargoBayL",
  "mk3CargoBayM",
  "mk3CargoRamp",
  "mk3CargoBayS",
  "parachuteSingle",
  "radialDrogue",
  "parachuteLarge",
  "parachuteRadial",
  "parachuteDrogue",
  "stackPoint1",
  "RCSBlock",
  "RCSBlock.v2",
  "RelayAntenna100",
  "RelayAntenna5",
  "RelayAntenna50",
  "largeAdapter",
  "largeAdapter2",
  "ServiceBay.125",
  "ServiceBay.250",
  "ServiceBay.125.v2",
  "ServiceBay.250.v2",
  "spotLight1",
  "spotLight2",
  "stackBiCoupler",
  "stackBiCoupler.v2",
  "stackQuadCoupler",
  "stackTriCoupler.v2",
  "stackTriCoupler",
  "GearLarge",
  "GearFixed",
  "GearFree",
  "GearMedium",
  "GearSmall",
  "SmallGearBay",
  "roverWheel1",
  "roverWheel2",
  "wheelMed",
  "roverWheel3",
  "liquidEngineMainsail.v2",
  "engineLargeSkipper.v2",
  "ReleaseValve",
  "MpoProbe",
  "MtmStage",
  "Magnetometer",
  "smallClaw",
  "PotatoComet",
  "PotatoRoid",
  "flagPartFlat",
  "flagPartSize0",
  "flagPartSize1",
  "flagPartSize2",
  "flagPartSize3",
  "kerbalEVA",
  "kerbalFemaleEVA"
]